﻿102;ОАО "ГомельДрев";800000;15
101;ОАО "ПинскДрев";900000;2
108;ОАО "Лагуна";1000000;4
107;ОАО "ГомельДрев";2500000;8
103;ОАО "Лагуна";1200000;10
105;ОАО "ПинскДрев";500000;4
104;ОАО "Лагуна";3000000;3
106;ОАО "Лагуна";2000000;10
101;ОАО "ГомельДрев";900000;2
102;ОАО "ПинскДрев";500000;10
103;ОАО "Лагуна";8000000;5
104;ОАО "ГомельДрев";3000000;2
105;ОАО "Лагуна";4000000;8
106;ОАО "Лагуна";5000000;15
107;ОАО "ГомельДрев";1500000;30
108;ОАО "ПинскДрев";700000;4